…
#> 61622  2  3  3  4  5  4  4  5  3  2  2  2  5  4  5  2  3  4  4  3  3  3  4  3
#> 61623  6  6  5  6  5  6  6  6  1  3  2  1  6  5  6  3  5  2  2  3  4  3  5  6
#>       O5
#> 61617  3
#> 61618  3
#> 61620  2
#> 61621  5
#> 61622  3
#> 61623  1
#diagnose for missing value
dlookr::diagnose(data)
#> Registered S3 method overwritten by 'dlookr':
#>   method         from  
#>   plot.transform scales
#> # A tibble: 25 × 6
#>    variables types   missing_count missing_percent unique_count unique_rate
#>    <chr>     <chr>           <int>           <dbl>        <int>       <dbl>
#>  1 A1        integer            16           0.571            7      0.0025
#>  2 A2        integer            27           0.964            7      0.0025
#>  3 A3        integer            26           0.929            7      0.0025
#>  4 A4        integer            19           0.679            7      0.0025
#>  5 A5        integer            16           0.571            7      0.0025
#>  6 C1        integer            21           0.75             7      0.0025
#>  7 C2        integer            24           0.857            7      0.0025
#>  8 C3        integer            20           0.714            7      0.0025
#>  9 C4        integer            26           0.929            7      0.0025
#> 10 C5        integer            16           0.571            7      0.0025
#> # ℹ 15 more rows
…
